{
	"LDAP": {
		"connection": {
			"server": "10.10.20.87",
                        "port": 7389,
			"user": "uid=rapper1,cn=users,dc=comune,dc=padova,dc=it",
			"pass": "p3PP3r1n0",
                        "enctype": "tsl",
			"options": {
				"LDAP_OPT_DEREF": 1
			},
			"basedn": "dc=comune,dc=padova,dc=it",
			"groupbasedn": "dc=comune,dc=padova,dc=it",
			"userbasedn": "cn=users,dc=comune,dc=padova,dc=it",
			"searchattribute": "uid",
			"searchstring": "uid=USER-NAME,cn=users,dc=comune,dc=padova,dc=it",
			"usernameattribute": "uid",
			"realnameattribute": "cn",
			"emailattribute": "mailPrimaryAddress",
			"grouprequest": "MediaWiki\\Extension\\LDAPProvider\\UserGroupsRequest\\Configurable::factory",
                        "groupattribute": "ou",
                        "groupobjectclass": "person",
			"presearchusernamemodifiers": [ "spacestounderscores", "lowercase" ]
		},
		"userinfo": [],
		"authorization": [],
		"groupsync": {
			"mapping": {
                                "urbanistica": "ou=Settore Urbanistica e Servizi Catastali,dc=comune,dc=padova,dc=it",
                                "edilizia": "ou=Settore Edilizia Privata"
			}
		}
	}
}
